module gitlab.com/nano-backend/companies

go 1.21

require (
	github.com/IBM/sarama v1.41.1
	github.com/go-chi/chi/v5 v5.0.10
	github.com/go-chi/jwtauth/v5 v5.1.1
	github.com/jackc/pgx/v5 v5.4.3
	github.com/joho/godotenv v1.5.1
	github.com/stretchr/testify v1.8.4
)

require (
	github.com/davecgh/go-spew v1.1.1 // indirect
	github.com/decred/dcrd/dcrec/secp256k1/v4 v4.2.0 // indirect
	github.com/eapache/go-resiliency v1.4.0 // indirect
	github.com/eapache/go-xerial-snappy v0.0.0-20230731223053-c322873962e3 // indirect
	github.com/eapache/queue v1.1.0 // indirect
	github.com/goccy/go-json v0.10.2 // indirect
	github.com/golang/snappy v0.0.4 // indirect
	github.com/hashicorp/errwrap v1.1.0 // indirect
	github.com/hashicorp/go-multierror v1.1.1 // indirect
	github.com/hashicorp/go-uuid v1.0.3 // indirect
	github.com/jackc/pgpassfile v1.0.0 // indirect
	github.com/jackc/pgservicefile v0.0.0-20221227161230-091c0ba34f0a // indirect
	github.com/jackc/puddle/v2 v2.2.1 // indirect
	github.com/jcmturner/aescts/v2 v2.0.0 // indirect
	github.com/jcmturner/dnsutils/v2 v2.0.0 // indirect
	github.com/jcmturner/gofork v1.7.6 // indirect
	github.com/jcmturner/gokrb5/v8 v8.4.4 // indirect
	github.com/jcmturner/rpc/v2 v2.0.3 // indirect
	github.com/klauspost/compress v1.16.7 // indirect
	github.com/kr/text v0.2.0 // indirect
	github.com/lestrrat-go/blackmagic v1.0.1 // indirect
	github.com/lestrrat-go/httpcc v1.0.1 // indirect
	github.com/lestrrat-go/httprc v1.0.4 // indirect
	github.com/lestrrat-go/iter v1.0.2 // indirect
	github.com/lestrrat-go/jwx/v2 v2.0.12 // indirect
	github.com/lestrrat-go/option v1.0.1 // indirect
	github.com/pierrec/lz4/v4 v4.1.18 // indirect
	github.com/pmezard/go-difflib v1.0.0 // indirect
	github.com/rcrowley/go-metrics v0.0.0-20201227073835-cf1acfcdf475 // indirect
	github.com/rogpeppe/go-internal v1.11.0 // indirect
	github.com/segmentio/asm v1.2.0 // indirect
	golang.org/x/crypto v0.13.0 // indirect
	golang.org/x/net v0.15.0 // indirect
	golang.org/x/sync v0.3.0 // indirect
	golang.org/x/sys v0.12.0 // indirect
	golang.org/x/text v0.13.0 // indirect
	gopkg.in/yaml.v3 v3.0.1 // indirect
)
